{
    "key": "group_5bab4a1318c06",
    "title": "Tracking og scripts",
    "fields": [
        {
            "key": "field_5bab4a21976b5",
            "label": "Google tag manager ID",
            "name": "google_tag_manager",
            "type": "text",
            "instructions": "Indtast dit container ID",
            "required": 0,
            "conditional_logic": 0,
            "wrapper": {
                "width": "",
                "class": "",
                "id": ""
            },
            "default_value": "",
            "placeholder": "",
            "prepend": "",
            "append": "",
            "maxlength": ""
        },
        {
            "key": "field_5bab4a4667a3a",
            "label": "Google analytics ID",
            "name": "google_analytics",
            "type": "text",
            "instructions": "Indtast dit container ID",
            "required": 0,
            "conditional_logic": 0,
            "wrapper": {
                "width": "",
                "class": "",
                "id": ""
            },
            "default_value": "",
            "placeholder": "",
            "prepend": "",
            "append": "",
            "maxlength": ""
        }
    ],
    "location": [
        [
            {
                "param": "options_page",
                "operator": "==",
                "value": "acf-options-generelt-indhold"
            }
        ]
    ],
    "menu_order": 0,
    "position": "normal",
    "style": "default",
    "label_placement": "top",
    "instruction_placement": "label",
    "hide_on_screen": "",
    "active": 1,
    "description": "",
    "modified": 1537952383
}