{
    "key": "group_5409de8b488f4",
    "title": "Layouts",
    "fields": [
        {
            "key": "field_5409d668d395b",
            "label": "Layout",
            "name": "layout",
            "type": "flexible_content",
            "instructions": "",
            "required": 0,
            "conditional_logic": 0,
            "wrapper": {
                "width": "",
                "class": "",
                "id": ""
            },
            "layouts": {
                "5409de8b4c6b9": {
                    "key": "5409de8b4c6b9",
                    "name": "hero",
                    "label": "Hero",
                    "display": "block",
                    "sub_fields": [
                        {
                            "key": "field_5409d6fbd395c",
                            "label": "Billede",
                            "name": "image",
                            "type": "image",
                            "instructions": "",
                            "required": 0,
                            "conditional_logic": 0,
                            "wrapper": {
                                "width": "",
                                "class": "",
                                "id": ""
                            },
                            "return_format": "array",
                            "preview_size": "medium",
                            "library": "all",
                            "min_width": "",
                            "min_height": "",
                            "min_size": "",
                            "max_width": "",
                            "max_height": "",
                            "max_size": "",
                            "mime_types": ""
                        },
                        {
                            "key": "field_5409d70cd395d",
                            "label": "Overskrift",
                            "name": "header",
                            "type": "text",
                            "instructions": "",
                            "required": 0,
                            "conditional_logic": 0,
                            "wrapper": {
                                "width": "66.6",
                                "class": "",
                                "id": ""
                            },
                            "default_value": "",
                            "placeholder": "",
                            "prepend": "",
                            "append": "",
                            "maxlength": ""
                        },
                        {
                            "key": "field_5bc48cf77f8f7",
                            "label": "Overskrifts tag",
                            "name": "tag",
                            "type": "select",
                            "instructions": "",
                            "required": 0,
                            "conditional_logic": 0,
                            "wrapper": {
                                "width": "33.3",
                                "class": "",
                                "id": ""
                            },
                            "choices": {
                                "h1": "h1",
                                "h2": "h2",
                                "h3": "h3",
                                "h4": "h4",
                                "h5": "h5",
                                "h6": "h6"
                            },
                            "default_value": [
                                "h2"
                            ],
                            "allow_null": 0,
                            "multiple": 0,
                            "ui": 0,
                            "return_format": "value",
                            "ajax": 0,
                            "placeholder": ""
                        },
                        {
                            "key": "field_5409d730d3960",
                            "label": "Tekst",
                            "name": "text",
                            "type": "textarea",
                            "instructions": "",
                            "required": 0,
                            "conditional_logic": 0,
                            "wrapper": {
                                "width": "33.33",
                                "class": "",
                                "id": ""
                            },
                            "default_value": "",
                            "placeholder": "",
                            "maxlength": "",
                            "rows": "",
                            "new_lines": ""
                        },
                        {
                            "key": "field_5bc58d433f3d9",
                            "label": "Link",
                            "name": "link",
                            "type": "page_link",
                            "instructions": "",
                            "required": 0,
                            "conditional_logic": 0,
                            "wrapper": {
                                "width": "33.33",
                                "class": "",
                                "id": ""
                            },
                            "post_type": "",
                            "taxonomy": "",
                            "allow_null": 0,
                            "allow_archives": 1,
                            "multiple": 0
                        },
                        {
                            "key": "field_5b9231b4d6e6d",
                            "label": "Link tekst",
                            "name": "link_text",
                            "type": "text",
                            "instructions": "",
                            "required": 0,
                            "conditional_logic": 0,
                            "wrapper": {
                                "width": "33.33",
                                "class": "",
                                "id": ""
                            },
                            "default_value": "",
                            "placeholder": "",
                            "prepend": "",
                            "append": "",
                            "maxlength": ""
                        }
                    ],
                    "min": "",
                    "max": ""
                },
                "5409de8b65ee8": {
                    "key": "5409de8b65ee8",
                    "name": "slider",
                    "label": "Slider",
                    "display": "block",
                    "sub_fields": [
                        {
                            "key": "field_5409d8e837708",
                            "label": "Slides",
                            "name": "slides",
                            "type": "repeater",
                            "instructions": "",
                            "required": 0,
                            "conditional_logic": 0,
                            "wrapper": {
                                "width": "",
                                "class": "",
                                "id": ""
                            },
                            "row_min": "",
                            "row_limit": "",
                            "layout": "table",
                            "button_label": "Add Slide",
                            "min": 0,
                            "max": 0,
                            "collapsed": "",
                            "sub_fields": [
                                {
                                    "key": "field_5409d8f637709",
                                    "label": "Background",
                                    "name": "background",
                                    "type": "image",
                                    "instructions": "",
                                    "required": 0,
                                    "conditional_logic": 0,
                                    "wrapper": {
                                        "width": "",
                                        "class": "",
                                        "id": ""
                                    },
                                    "preview_size": "medium",
                                    "library": "all",
                                    "return_format": "url",
                                    "min_width": 0,
                                    "min_height": 0,
                                    "min_size": 0,
                                    "max_width": 0,
                                    "max_height": 0,
                                    "max_size": 0,
                                    "mime_types": ""
                                },
                                {
                                    "key": "field_5409d9063770a",
                                    "label": "Header",
                                    "name": "header",
                                    "type": "text",
                                    "instructions": "",
                                    "required": 0,
                                    "conditional_logic": 0,
                                    "wrapper": {
                                        "width": "",
                                        "class": "",
                                        "id": ""
                                    },
                                    "default_value": "",
                                    "placeholder": "",
                                    "prepend": "",
                                    "append": "",
                                    "formatting": "html",
                                    "maxlength": "",
                                    "readonly": 0,
                                    "disabled": 0
                                },
                                {
                                    "key": "field_5409d9133770b",
                                    "label": "Blurb",
                                    "name": "blurb",
                                    "type": "textarea",
                                    "instructions": "",
                                    "required": 0,
                                    "conditional_logic": 0,
                                    "wrapper": {
                                        "width": "",
                                        "class": "",
                                        "id": ""
                                    },
                                    "default_value": "",
                                    "placeholder": "",
                                    "maxlength": "",
                                    "rows": "",
                                    "new_lines": "wpautop",
                                    "readonly": 0,
                                    "disabled": 0
                                },
                                {
                                    "key": "field_5409d91b3770c",
                                    "label": "CTA Link",
                                    "name": "cta_link",
                                    "type": "text",
                                    "instructions": "",
                                    "required": 0,
                                    "conditional_logic": 0,
                                    "wrapper": {
                                        "width": "",
                                        "class": "",
                                        "id": ""
                                    },
                                    "default_value": "",
                                    "placeholder": "",
                                    "prepend": "",
                                    "append": "",
                                    "formatting": "html",
                                    "maxlength": "",
                                    "readonly": 0,
                                    "disabled": 0
                                },
                                {
                                    "key": "field_5409d9233770d",
                                    "label": "CTA Text",
                                    "name": "cta_text",
                                    "type": "text",
                                    "instructions": "",
                                    "required": 0,
                                    "conditional_logic": 0,
                                    "wrapper": {
                                        "width": "",
                                        "class": "",
                                        "id": ""
                                    },
                                    "default_value": "",
                                    "placeholder": "",
                                    "prepend": "",
                                    "append": "",
                                    "formatting": "html",
                                    "maxlength": "",
                                    "readonly": 0,
                                    "disabled": 0
                                }
                            ]
                        }
                    ],
                    "min": "",
                    "max": ""
                },
                "5412c2812a2f5": {
                    "key": "5412c2812a2f5",
                    "name": "wysiwygs",
                    "label": "WYSIWYGs",
                    "display": "block",
                    "sub_fields": [
                        {
                            "key": "field_5412c28a2a2f6",
                            "label": "Overskrift",
                            "name": "header",
                            "type": "text",
                            "instructions": "",
                            "required": 0,
                            "conditional_logic": 0,
                            "wrapper": {
                                "width": "",
                                "class": "",
                                "id": ""
                            },
                            "default_value": "",
                            "placeholder": "",
                            "prepend": "",
                            "append": "",
                            "maxlength": ""
                        },
                        {
                            "key": "field_5b92c72cb645b",
                            "label": "Margin",
                            "name": "margin",
                            "type": "select",
                            "instructions": "Vælg om sektionen skal have margin i top, bund eller begge.",
                            "required": 0,
                            "conditional_logic": 0,
                            "wrapper": {
                                "width": "33.3",
                                "class": "",
                                "id": ""
                            },
                            "choices": {
                                "both": "Begge",
                                "top": "Top",
                                "bottom": "Bund"
                            },
                            "default_value": [
                                "both"
                            ],
                            "allow_null": 0,
                            "multiple": 0,
                            "ui": 0,
                            "return_format": "value",
                            "ajax": 0,
                            "placeholder": ""
                        },
                        {
                            "key": "field_5b966fa924b08",
                            "label": "Baggrundsfarve",
                            "name": "bg",
                            "type": "select",
                            "instructions": "Vælg sektionens baggrundsfarve",
                            "required": 0,
                            "conditional_logic": 0,
                            "wrapper": {
                                "width": "33.3",
                                "class": "",
                                "id": ""
                            },
                            "choices": {
                                "gray-light": "Grå",
                                "blue": "Mørk blå",
                                "blue-light": "Lys blå"
                            },
                            "default_value": [
                                "gray-light"
                            ],
                            "allow_null": 0,
                            "multiple": 0,
                            "ui": 0,
                            "return_format": "value",
                            "ajax": 0,
                            "placeholder": ""
                        },
                        {
                            "key": "field_5b92cb98a0d9d",
                            "label": "Anchor ID (valgfri)",
                            "name": "anchor_id",
                            "type": "text",
                            "instructions": "Tilføj et anchor ID til sektionen. Dette bruges til at scrolle ned ad siden til det ønskede punkt. Du kan angive hvad som helst som ID, så længe det stemmer overens med linket i dine menupunkter.",
                            "required": 0,
                            "conditional_logic": 0,
                            "wrapper": {
                                "width": "33.3",
                                "class": "",
                                "id": ""
                            },
                            "default_value": "",
                            "placeholder": "",
                            "prepend": "",
                            "append": "",
                            "maxlength": ""
                        },
                        {
                            "key": "field_5412ce61ab045",
                            "label": "Offset",
                            "name": "offset",
                            "type": "radio",
                            "instructions": "<pre>\r\n<em>Flexible:<\/em><br>\r\n|---||---|<br>\r\n|--------|<br>\r\n<em>2 to 1:<\/em><br>\r\n|----||--|<br>\r\n<em>1 to 2:<\/em><br>\r\n|--||----|\r\n<\/pre>",
                            "required": 0,
                            "conditional_logic": 0,
                            "wrapper": {
                                "width": "",
                                "class": "",
                                "id": ""
                            },
                            "choices": {
                                "Flexible": "Flexible",
                                "2 to 1": "2 to 1",
                                "1 to 2": "1 to 2"
                            },
                            "other_choice": 0,
                            "save_other_choice": 0,
                            "default_value": "",
                            "layout": "vertical",
                            "allow_null": 0,
                            "return_format": "value"
                        },
                        {
                            "key": "field_5bacca9eacf56",
                            "label": "Baggrundsbillede",
                            "name": "bg_img",
                            "type": "image",
                            "instructions": "",
                            "required": 0,
                            "conditional_logic": 0,
                            "wrapper": {
                                "width": "50",
                                "class": "",
                                "id": ""
                            },
                            "return_format": "array",
                            "preview_size": "thumbnail",
                            "library": "all",
                            "min_width": "",
                            "min_height": "",
                            "min_size": "",
                            "max_width": "",
                            "max_height": "",
                            "max_size": "",
                            "mime_types": ""
                        },
                        {
                            "key": "field_5baccac1acf57",
                            "label": "Baggrundsbillede placering",
                            "name": "bg_position",
                            "type": "radio",
                            "instructions": "Vælg placering for baggrundsbillede",
                            "required": 0,
                            "conditional_logic": 0,
                            "wrapper": {
                                "width": "50",
                                "class": "",
                                "id": ""
                            },
                            "choices": {
                                "left": "Venstre",
                                "right": "Højre"
                            },
                            "allow_null": 0,
                            "other_choice": 0,
                            "default_value": "left",
                            "layout": "vertical",
                            "return_format": "value",
                            "save_other_choice": 0
                        },
                        {
                            "key": "field_5412c2c02a2f7",
                            "label": "WYSIWYGs",
                            "name": "wysiwygs",
                            "type": "repeater",
                            "instructions": "",
                            "required": 0,
                            "conditional_logic": 0,
                            "wrapper": {
                                "width": "",
                                "class": "",
                                "id": ""
                            },
                            "min": 0,
                            "max": 0,
                            "layout": "table",
                            "button_label": "Add WYSIWYG",
                            "collapsed": "",
                            "sub_fields": [
                                {
                                    "key": "field_5412c2da2a2f8",
                                    "label": "WYSIWYG",
                                    "name": "wysiwyg",
                                    "type": "wysiwyg",
                                    "instructions": "Switch from \"Visual\" tab to \"Text\" tab to write code. <strong>Button example:<\/strong><br>\r\n<code>&lt;a class=\"button\" href=\"\/page\/\" title=\"Page\"&gt;Page&lt;\/a&gt;<\/code>",
                                    "required": 0,
                                    "conditional_logic": 0,
                                    "wrapper": {
                                        "width": "",
                                        "class": "",
                                        "id": ""
                                    },
                                    "default_value": "",
                                    "tabs": "all",
                                    "toolbar": "full",
                                    "media_upload": 1,
                                    "delay": 0
                                }
                            ]
                        }
                    ],
                    "min": "",
                    "max": ""
                },
                "layout_5b924940901d7": {
                    "key": "layout_5b924940901d7",
                    "name": "steps",
                    "label": "Steps",
                    "display": "block",
                    "sub_fields": [
                        {
                            "key": "field_5b9249a6901dd",
                            "label": "Step",
                            "name": "step",
                            "type": "repeater",
                            "instructions": "",
                            "required": 0,
                            "conditional_logic": 0,
                            "wrapper": {
                                "width": "",
                                "class": "",
                                "id": ""
                            },
                            "collapsed": "",
                            "min": 0,
                            "max": 3,
                            "layout": "block",
                            "button_label": "Tilføj steps",
                            "sub_fields": [
                                {
                                    "key": "field_5b9249bb901de",
                                    "label": "Overskrift",
                                    "name": "step_title",
                                    "type": "text",
                                    "instructions": "",
                                    "required": 0,
                                    "conditional_logic": 0,
                                    "wrapper": {
                                        "width": "50",
                                        "class": "",
                                        "id": ""
                                    },
                                    "default_value": "",
                                    "placeholder": "",
                                    "prepend": "",
                                    "append": "",
                                    "maxlength": ""
                                },
                                {
                                    "key": "field_5b924a39901df",
                                    "label": "Tekst",
                                    "name": "step_text",
                                    "type": "textarea",
                                    "instructions": "",
                                    "required": 0,
                                    "conditional_logic": 0,
                                    "wrapper": {
                                        "width": "50",
                                        "class": "",
                                        "id": ""
                                    },
                                    "default_value": "",
                                    "new_lines": "",
                                    "maxlength": "",
                                    "placeholder": "",
                                    "rows": ""
                                }
                            ]
                        }
                    ],
                    "min": "",
                    "max": ""
                },
                "layout_5b925a6239a0b": {
                    "key": "layout_5b925a6239a0b",
                    "name": "skills",
                    "label": "Ydelser",
                    "display": "block",
                    "sub_fields": [
                        {
                            "key": "field_5b925ac339a10",
                            "label": "Sektions overskrift",
                            "name": "heading",
                            "type": "text",
                            "instructions": "",
                            "required": 0,
                            "conditional_logic": 0,
                            "wrapper": {
                                "width": "",
                                "class": "",
                                "id": ""
                            },
                            "default_value": "",
                            "placeholder": "",
                            "prepend": "",
                            "append": "",
                            "maxlength": ""
                        },
                        {
                            "key": "field_5b925ad339a11",
                            "label": "Sektions tekst",
                            "name": "text",
                            "type": "textarea",
                            "instructions": "",
                            "required": 0,
                            "conditional_logic": 0,
                            "wrapper": {
                                "width": "",
                                "class": "",
                                "id": ""
                            },
                            "default_value": "",
                            "placeholder": "",
                            "maxlength": "",
                            "rows": "",
                            "new_lines": ""
                        },
                        {
                            "key": "field_5b926841edc39",
                            "label": "Sektion baggrundsfarve",
                            "name": "bg",
                            "type": "select",
                            "instructions": "Vælg sektionens baggrundsfarve",
                            "required": 0,
                            "conditional_logic": 0,
                            "wrapper": {
                                "width": "50",
                                "class": "",
                                "id": ""
                            },
                            "choices": {
                                "blue": "Mørk blå",
                                "blue-light": "Lys blå",
                                "gray-light": "Grå"
                            },
                            "default_value": [
                                "blue"
                            ],
                            "allow_null": 0,
                            "multiple": 0,
                            "ui": 0,
                            "return_format": "value",
                            "ajax": 0,
                            "placeholder": ""
                        },
                        {
                            "key": "field_5b96264a96842",
                            "label": "Anchor ID (valgfri)",
                            "name": "anchor_id",
                            "type": "text",
                            "instructions": "Tilføj et anchor ID til sektionen. Dette bruges til at scrolle ned ad siden til det ønskede punkt. Du kan angive hvad som helst som ID, så længe det stemmer overens med linket i dine menupunkter.",
                            "required": 0,
                            "conditional_logic": 0,
                            "wrapper": {
                                "width": "50",
                                "class": "",
                                "id": ""
                            },
                            "default_value": "",
                            "placeholder": "",
                            "prepend": "",
                            "append": "",
                            "maxlength": ""
                        },
                        {
                            "key": "field_5bacce7899c4a",
                            "label": "Baggrundsbillede",
                            "name": "bg_img",
                            "type": "image",
                            "instructions": "",
                            "required": 0,
                            "conditional_logic": 0,
                            "wrapper": {
                                "width": "50",
                                "class": "",
                                "id": ""
                            },
                            "return_format": "array",
                            "preview_size": "thumbnail",
                            "library": "all",
                            "min_width": "",
                            "min_height": "",
                            "min_size": "",
                            "max_width": "",
                            "max_height": "",
                            "max_size": "",
                            "mime_types": ""
                        },
                        {
                            "key": "field_5bacce8799c4b",
                            "label": "Baggrundsbillede position",
                            "name": "bg_position",
                            "type": "radio",
                            "instructions": "",
                            "required": 0,
                            "conditional_logic": 0,
                            "wrapper": {
                                "width": "50",
                                "class": "",
                                "id": ""
                            },
                            "choices": {
                                "left": "Venstre",
                                "right": "Højre"
                            },
                            "allow_null": 0,
                            "other_choice": 0,
                            "default_value": "",
                            "layout": "vertical",
                            "return_format": "value",
                            "save_other_choice": 0
                        },
                        {
                            "key": "field_5b925a6239a0c",
                            "label": "Ydelser",
                            "name": "skill",
                            "type": "repeater",
                            "instructions": "",
                            "required": 0,
                            "conditional_logic": 0,
                            "wrapper": {
                                "width": "",
                                "class": "",
                                "id": ""
                            },
                            "collapsed": "",
                            "min": 0,
                            "max": 0,
                            "layout": "block",
                            "button_label": "Tilføj ydelser",
                            "sub_fields": [
                                {
                                    "key": "field_5b925a7d39a0f",
                                    "label": "Ikon",
                                    "name": "skill_icon",
                                    "type": "text",
                                    "instructions": "Du kan finde ikoner <a target=\"_blank\" href=\"https:\/\/fontawesome.com\/\">her<\/a>. Indsæt blot HTML koden.",
                                    "required": 0,
                                    "conditional_logic": 0,
                                    "wrapper": {
                                        "width": "33.3",
                                        "class": "",
                                        "id": ""
                                    },
                                    "default_value": "",
                                    "placeholder": "",
                                    "prepend": "",
                                    "append": "",
                                    "maxlength": ""
                                },
                                {
                                    "key": "field_5b925a6239a0d",
                                    "label": "Overskrift",
                                    "name": "icon_title",
                                    "type": "text",
                                    "instructions": "",
                                    "required": 0,
                                    "conditional_logic": 0,
                                    "wrapper": {
                                        "width": "33.3",
                                        "class": "",
                                        "id": ""
                                    },
                                    "default_value": "",
                                    "placeholder": "",
                                    "prepend": "",
                                    "append": "",
                                    "maxlength": ""
                                },
                                {
                                    "key": "field_5b925a6239a0e",
                                    "label": "Tekst",
                                    "name": "icon_text",
                                    "type": "textarea",
                                    "instructions": "",
                                    "required": 0,
                                    "conditional_logic": 0,
                                    "wrapper": {
                                        "width": "33.3",
                                        "class": "",
                                        "id": ""
                                    },
                                    "default_value": "",
                                    "placeholder": "",
                                    "maxlength": "",
                                    "rows": "",
                                    "new_lines": ""
                                },
                                {
                                    "key": "field_5bab4f15904d8",
                                    "label": "Link til ydelse?",
                                    "name": "link",
                                    "type": "select",
                                    "instructions": "Vælg om ydelsen skal linke til slideren.",
                                    "required": 0,
                                    "conditional_logic": 0,
                                    "wrapper": {
                                        "width": "50",
                                        "class": "",
                                        "id": ""
                                    },
                                    "choices": {
                                        "no": "Nej",
                                        "yes": "Ja"
                                    },
                                    "default_value": [
                                        "no"
                                    ],
                                    "allow_null": 0,
                                    "multiple": 0,
                                    "ui": 0,
                                    "return_format": "value",
                                    "ajax": 0,
                                    "placeholder": ""
                                },
                                {
                                    "key": "field_5bab5086904d9",
                                    "label": "Link",
                                    "name": "trigger_url",
                                    "type": "text",
                                    "instructions": "Standard formattet hedder således:  \r\nhttp:\/\/siteurl.com\/form-url\/?your_parameter=value",
                                    "required": 0,
                                    "conditional_logic": [
                                        [
                                            {
                                                "field": "field_5bab4f15904d8",
                                                "operator": "==",
                                                "value": "yes"
                                            }
                                        ]
                                    ],
                                    "wrapper": {
                                        "width": "50",
                                        "class": "",
                                        "id": ""
                                    },
                                    "default_value": "",
                                    "placeholder": "",
                                    "prepend": "",
                                    "append": "",
                                    "maxlength": ""
                                }
                            ]
                        },
                        {
                            "key": "field_5b925ae739a12",
                            "label": "Call to action",
                            "name": "",
                            "type": "tab",
                            "instructions": "",
                            "required": 0,
                            "conditional_logic": 0,
                            "wrapper": {
                                "width": "",
                                "class": "",
                                "id": ""
                            },
                            "placement": "top",
                            "endpoint": 0
                        },
                        {
                            "key": "field_5b925b0639a13",
                            "label": "Overskrift",
                            "name": "cta_title",
                            "type": "text",
                            "instructions": "",
                            "required": 0,
                            "conditional_logic": 0,
                            "wrapper": {
                                "width": "",
                                "class": "",
                                "id": ""
                            },
                            "default_value": "",
                            "placeholder": "",
                            "prepend": "",
                            "append": "",
                            "maxlength": ""
                        },
                        {
                            "key": "field_5b925b2639a14",
                            "label": "Links",
                            "name": "cta_links",
                            "type": "repeater",
                            "instructions": "",
                            "required": 0,
                            "conditional_logic": 0,
                            "wrapper": {
                                "width": "",
                                "class": "",
                                "id": ""
                            },
                            "collapsed": "",
                            "min": 0,
                            "max": 0,
                            "layout": "block",
                            "button_label": "Tilføj links",
                            "sub_fields": [
                                {
                                    "key": "field_5b925c3439a15",
                                    "label": "Link type",
                                    "name": "link_type",
                                    "type": "select",
                                    "instructions": "Vælg om linket er et telefon link, mail link eller et ganske normalt link.",
                                    "required": 0,
                                    "conditional_logic": 0,
                                    "wrapper": {
                                        "width": "",
                                        "class": "",
                                        "id": ""
                                    },
                                    "choices": {
                                        "default": "Normal link",
                                        "phone": "Telefon link",
                                        "mail": "Mail link"
                                    },
                                    "default_value": [
                                        "default"
                                    ],
                                    "allow_null": 0,
                                    "multiple": 0,
                                    "ui": 0,
                                    "return_format": "value",
                                    "ajax": 0,
                                    "placeholder": ""
                                },
                                {
                                    "key": "field_5b925ca839a16",
                                    "label": "Link",
                                    "name": "link",
                                    "type": "link",
                                    "instructions": "Indtast den ønskede link URL",
                                    "required": 0,
                                    "conditional_logic": [
                                        [
                                            {
                                                "field": "field_5b925c3439a15",
                                                "operator": "==",
                                                "value": "default"
                                            }
                                        ]
                                    ],
                                    "wrapper": {
                                        "width": "",
                                        "class": "",
                                        "id": ""
                                    },
                                    "return_format": "url"
                                },
                                {
                                    "key": "field_5b925cce39a17",
                                    "label": "Link tekst",
                                    "name": "link_text",
                                    "type": "text",
                                    "instructions": "Indtast den ønskede link tekst",
                                    "required": 0,
                                    "conditional_logic": [
                                        [
                                            {
                                                "field": "field_5b925c3439a15",
                                                "operator": "==",
                                                "value": "default"
                                            }
                                        ]
                                    ],
                                    "wrapper": {
                                        "width": "",
                                        "class": "",
                                        "id": ""
                                    },
                                    "default_value": "",
                                    "placeholder": "",
                                    "prepend": "",
                                    "append": "",
                                    "maxlength": ""
                                },
                                {
                                    "key": "field_5b925ce239a18",
                                    "label": "Telefon link",
                                    "name": "phone_link",
                                    "type": "text",
                                    "instructions": "Indtast telefon nummer",
                                    "required": 0,
                                    "conditional_logic": [
                                        [
                                            {
                                                "field": "field_5b925c3439a15",
                                                "operator": "==",
                                                "value": "phone"
                                            }
                                        ]
                                    ],
                                    "wrapper": {
                                        "width": "",
                                        "class": "",
                                        "id": ""
                                    },
                                    "default_value": "",
                                    "placeholder": "",
                                    "prepend": "",
                                    "append": "",
                                    "maxlength": ""
                                },
                                {
                                    "key": "field_5b925dd439a19",
                                    "label": "Mail link",
                                    "name": "mail_link",
                                    "type": "text",
                                    "instructions": "Indtast den øsnkede mail adresse",
                                    "required": 0,
                                    "conditional_logic": [
                                        [
                                            {
                                                "field": "field_5b925c3439a15",
                                                "operator": "==",
                                                "value": "mail"
                                            }
                                        ]
                                    ],
                                    "wrapper": {
                                        "width": "",
                                        "class": "",
                                        "id": ""
                                    },
                                    "default_value": "",
                                    "placeholder": "",
                                    "prepend": "",
                                    "append": "",
                                    "maxlength": ""
                                }
                            ]
                        }
                    ],
                    "min": "",
                    "max": ""
                },
                "layout_5b9279f97734d": {
                    "key": "layout_5b9279f97734d",
                    "name": "testimonials",
                    "label": "Testimonials",
                    "display": "block",
                    "sub_fields": [
                        {
                            "key": "field_5b9279f97734e",
                            "label": "Sektions overskrift",
                            "name": "header",
                            "type": "text",
                            "instructions": "",
                            "required": 0,
                            "conditional_logic": 0,
                            "wrapper": {
                                "width": "",
                                "class": "",
                                "id": ""
                            },
                            "default_value": "",
                            "placeholder": "",
                            "prepend": "",
                            "append": "",
                            "maxlength": ""
                        },
                        {
                            "key": "field_5b9279f977350",
                            "label": "Sektion baggrundsfarve",
                            "name": "bg",
                            "type": "select",
                            "instructions": "Vælg sektionens baggrundsfarve",
                            "required": 0,
                            "conditional_logic": 0,
                            "wrapper": {
                                "width": "50",
                                "class": "",
                                "id": ""
                            },
                            "choices": {
                                "blue": "Mørk blå",
                                "blue-light": "Lys blå",
                                "gray-light": "Grå"
                            },
                            "default_value": [
                                "blue"
                            ],
                            "allow_null": 0,
                            "multiple": 0,
                            "ui": 0,
                            "return_format": "value",
                            "ajax": 0,
                            "placeholder": ""
                        },
                        {
                            "key": "field_5b97800309b7f",
                            "label": "Anchor ID (valgfri)",
                            "name": "anchor_id",
                            "type": "text",
                            "instructions": "Tilføj et anchor ID til sektionen. Dette bruges til at scrolle ned ad siden til det ønskede punkt. Du kan angive hvad som helst som ID, så længe det stemmer overens med linket i dine menupunkter.",
                            "required": 0,
                            "conditional_logic": 0,
                            "wrapper": {
                                "width": "50",
                                "class": "",
                                "id": ""
                            },
                            "default_value": "",
                            "placeholder": "",
                            "prepend": "",
                            "append": "",
                            "maxlength": ""
                        },
                        {
                            "key": "field_5baccfb341c63",
                            "label": "Baggrundsbillede",
                            "name": "bg_img",
                            "type": "image",
                            "instructions": "",
                            "required": 0,
                            "conditional_logic": 0,
                            "wrapper": {
                                "width": "50",
                                "class": "",
                                "id": ""
                            },
                            "return_format": "array",
                            "preview_size": "thumbnail",
                            "library": "all",
                            "min_width": "",
                            "min_height": "",
                            "min_size": "",
                            "max_width": "",
                            "max_height": "",
                            "max_size": "",
                            "mime_types": ""
                        },
                        {
                            "key": "field_5baccfd541c64",
                            "label": "Baggrundsbillede position",
                            "name": "bg_position",
                            "type": "radio",
                            "instructions": "",
                            "required": 0,
                            "conditional_logic": 0,
                            "wrapper": {
                                "width": "50",
                                "class": "",
                                "id": ""
                            },
                            "choices": {
                                "left": "Venstre",
                                "right": "Højre"
                            },
                            "allow_null": 0,
                            "other_choice": 0,
                            "default_value": "left",
                            "layout": "vertical",
                            "return_format": "value",
                            "save_other_choice": 0
                        },
                        {
                            "key": "field_5b927a157735d",
                            "label": "Testimonials",
                            "name": "testimonial",
                            "type": "repeater",
                            "instructions": "",
                            "required": 0,
                            "conditional_logic": 0,
                            "wrapper": {
                                "width": "",
                                "class": "",
                                "id": ""
                            },
                            "collapsed": "",
                            "min": 0,
                            "max": 2,
                            "layout": "block",
                            "button_label": "Tilføj testimonial",
                            "sub_fields": [
                                {
                                    "key": "field_5b927a837735f",
                                    "label": "Firma navn",
                                    "name": "company",
                                    "type": "text",
                                    "instructions": "",
                                    "required": 0,
                                    "conditional_logic": 0,
                                    "wrapper": {
                                        "width": "",
                                        "class": "",
                                        "id": ""
                                    },
                                    "default_value": "",
                                    "placeholder": "",
                                    "prepend": "",
                                    "append": "",
                                    "maxlength": ""
                                },
                                {
                                    "key": "field_5b927a8d77360",
                                    "label": "Citat",
                                    "name": "quote",
                                    "type": "textarea",
                                    "instructions": "",
                                    "required": 0,
                                    "conditional_logic": 0,
                                    "wrapper": {
                                        "width": "",
                                        "class": "",
                                        "id": ""
                                    },
                                    "default_value": "",
                                    "placeholder": "",
                                    "maxlength": "",
                                    "rows": "",
                                    "new_lines": ""
                                }
                            ]
                        }
                    ],
                    "min": "",
                    "max": ""
                },
                "layout_5b927f91802ba": {
                    "key": "layout_5b927f91802ba",
                    "name": "references",
                    "label": "Referencer",
                    "display": "block",
                    "sub_fields": [
                        {
                            "key": "field_5b927f91802bb",
                            "label": "Sektions overskrift",
                            "name": "header",
                            "type": "text",
                            "instructions": "",
                            "required": 0,
                            "conditional_logic": 0,
                            "wrapper": {
                                "width": "",
                                "class": "",
                                "id": ""
                            },
                            "default_value": "",
                            "placeholder": "",
                            "prepend": "",
                            "append": "",
                            "maxlength": ""
                        },
                        {
                            "key": "field_5b927f91802bc",
                            "label": "Sektion baggrundsfarve",
                            "name": "bg",
                            "type": "select",
                            "instructions": "Vælg sektionens baggrundsfarve",
                            "required": 0,
                            "conditional_logic": 0,
                            "wrapper": {
                                "width": "",
                                "class": "",
                                "id": ""
                            },
                            "choices": {
                                "blue": "Mørk blå",
                                "blue-light": "Lys blå",
                                "gray-light": "Grå"
                            },
                            "default_value": [
                                "blue"
                            ],
                            "allow_null": 0,
                            "multiple": 0,
                            "ui": 0,
                            "ajax": 0,
                            "return_format": "value",
                            "placeholder": ""
                        },
                        {
                            "key": "field_5b927f91802bd",
                            "label": "Logos",
                            "name": "reference",
                            "type": "repeater",
                            "instructions": "",
                            "required": 0,
                            "conditional_logic": 0,
                            "wrapper": {
                                "width": "",
                                "class": "",
                                "id": ""
                            },
                            "collapsed": "",
                            "min": 0,
                            "max": 6,
                            "layout": "block",
                            "button_label": "Tilføj reference",
                            "sub_fields": [
                                {
                                    "key": "field_5b927ff6802c0",
                                    "label": "Logo",
                                    "name": "logo",
                                    "type": "image",
                                    "instructions": "",
                                    "required": 0,
                                    "conditional_logic": 0,
                                    "wrapper": {
                                        "width": "",
                                        "class": "",
                                        "id": ""
                                    },
                                    "return_format": "array",
                                    "preview_size": "thumbnail",
                                    "library": "all",
                                    "min_width": "",
                                    "min_height": "",
                                    "min_size": "",
                                    "max_width": "",
                                    "max_height": "",
                                    "max_size": "",
                                    "mime_types": ""
                                }
                            ]
                        }
                    ],
                    "min": "",
                    "max": ""
                },
                "layout_5b92835476929": {
                    "key": "layout_5b92835476929",
                    "name": "cta",
                    "label": "CTA sektion",
                    "display": "block",
                    "sub_fields": [
                        {
                            "key": "field_5b9283707692e",
                            "label": "Baggrundsbillede",
                            "name": "cta_img",
                            "type": "image",
                            "instructions": "",
                            "required": 0,
                            "conditional_logic": 0,
                            "wrapper": {
                                "width": "",
                                "class": "",
                                "id": ""
                            },
                            "return_format": "array",
                            "preview_size": "thumbnail",
                            "library": "all",
                            "min_width": "",
                            "min_height": "",
                            "min_size": "",
                            "max_width": "",
                            "max_height": "",
                            "max_size": "",
                            "mime_types": ""
                        },
                        {
                            "key": "field_5b9283fb7692f",
                            "label": "Overskrift",
                            "name": "cta_title",
                            "type": "text",
                            "instructions": "",
                            "required": 0,
                            "conditional_logic": 0,
                            "wrapper": {
                                "width": "50",
                                "class": "",
                                "id": ""
                            },
                            "default_value": "",
                            "placeholder": "",
                            "prepend": "",
                            "append": "",
                            "maxlength": ""
                        },
                        {
                            "key": "field_5b92842c76931",
                            "label": "Link text",
                            "name": "cta_link_text",
                            "type": "text",
                            "instructions": "",
                            "required": 0,
                            "conditional_logic": 0,
                            "wrapper": {
                                "width": "50",
                                "class": "",
                                "id": ""
                            },
                            "default_value": "",
                            "placeholder": "",
                            "prepend": "",
                            "append": "",
                            "maxlength": ""
                        },
                        {
                            "key": "field_5bab8cf9cd2e4",
                            "label": "Form ID",
                            "name": "cta_form_id",
                            "type": "text",
                            "instructions": "Vælg hvilken formular der skal linkes til. Er du i tvivl om hvilket ID din formular har. Kan du se det <a target=\"_blank\" href=\"\/wp-admin\/admin.php?page=gf_edit_forms\">her<\/a>",
                            "required": 0,
                            "conditional_logic": 0,
                            "wrapper": {
                                "width": "",
                                "class": "",
                                "id": ""
                            },
                            "default_value": "",
                            "placeholder": "",
                            "prepend": "",
                            "append": "",
                            "maxlength": ""
                        }
                    ],
                    "min": "",
                    "max": ""
                }
            },
            "button_label": "Tilføj layout",
            "min": "",
            "max": ""
        }
    ],
    "location": [
        [
            {
                "param": "page_template",
                "operator": "==",
                "value": "page-layouts.php"
            }
        ]
    ],
    "menu_order": 0,
    "position": "normal",
    "style": "seamless",
    "label_placement": "top",
    "instruction_placement": "label",
    "hide_on_screen": [
        "the_content",
        "excerpt",
        "discussion",
        "comments",
        "revisions",
        "slug",
        "author",
        "format",
        "featured_image",
        "categories",
        "tags",
        "send-trackbacks"
    ],
    "active": 1,
    "description": "",
    "modified": 1539673453
}